"county","municipality_id","municipality","place_id","place_name","pop","x_sweref","y_sweref"
"Stockholms län","0114","Upplands Väsby","T0236","Upplands Väsby",618,"664782","6603912"
"Stockholms län","0115","Vallentuna","T0388","Vallentuna",32847,"674255","6600716"
"Stockholms län","0117","Österåker","T0408","Åkersberga",34818,"686070","6598891"
"Stockholms län","0120","Värmdö","T0172","Gustavsberg",23467,"681986","6580250"
"Stockholms län","0125","Ekerö","T0150","Ekerö",12071,"659550","6573965"
"Stockholms län","0126","Huddinge","T0394","Huddinge centrum",804,"674776","6565991"
"Stockholms län","0127","Botkyrka","T0372","Tumba",42344,"661263","6565018"
"Stockholms län","0136","Haninge","T0404","Västerhaninge",18428,"677277","6557549"
"Stockholms län","0139","Upplands-Bro","T0220","Kungsängen",12014,"654941","6597191"
"Stockholms län","0140","Nykvarn","T0260","Nykvarn",7739,"639031","6562121"
"Stockholms län","0160","Täby","T0114","Arninge",1354,"677278","6596249"
"Stockholms län","0162","Danderyd","T0368","Djursholm",416,"674851","6588323"
"Stockholms län","0163","Sollentuna","T0384","Sollentuna",146102,"666503","6591042"
"Stockholms län","0180","Stockholm","T0336","Stockholm",1584196,"666918","6565859"
"Stockholms län","0181","Södertälje","T0356","Södertälje",73872,"648452","6564590"
"Stockholms län","0182","Nacka","T0296","Saltsjöbaden",9467,"687547","6574635"
"Stockholms län","0186","Lidingö","T0228","Lidingö",43925,"675512","6582914"
"Stockholms län","0187","Vaxholm","T0392","Vaxholm",5145,"685048","6588248"
"Stockholms län","0188","Norrtälje","T0252","Norrtälje",21188,"708152","6630471"
"Stockholms län","0191","Sigtuna","T0240","Märsta",29199,"660086","6612893"
"Stockholms län","0192","Nynäshamn","T0264","Nynäshamn",14855,"669611","6533538"
"Uppsala län","0305","Håbo","T0520","Bålsta",15210,"642171","6605636"
"Uppsala län","0319","Älvkarleby","T0616","Skutskär",7168,"630153","6724553"
"Uppsala län","0330","Knivsta","T0576","Knivsta",8332,"657093","6624148"
"Uppsala län","0331","Heby","T6232","Heby",2705,"603704","6646305"
"Uppsala län","0360","Tierp","T0640","Tierp",6143,"638883","6692780"
"Uppsala län","0380","Uppsala","T0656","Uppsala",160926,"647878","6637655"
"Uppsala län","0381","Enköping","T0532","Enköping",23988,"616841","6613175"
"Uppsala län","0382","Östhammar","T0688","Östhammar",4906,"686088","6684956"
"Södermanlands län","0428","Vingåker","T0904","Vingåker",4773,"550078","6545271"
"Södermanlands län","0461","Gnesta","T0752","Gnesta",6248,"632373","6547535"
"Södermanlands län","0480","Nyköping","T0812","Nyköping",33243,"616775","6514896"
"Södermanlands län","0481","Oxelösund","T0820","Oxelösund",11488,"622623","6505266"
"Södermanlands län","0482","Flen","T0744","Flen",6607,"591320","6547758"
"Södermanlands län","0483","Katrineholm","T0784","Katrineholm",24303,"569046","6539764"
"Södermanlands län","0484","Eskilstuna","T0740","Eskilstuna",70261,"584367","6577248"
"Södermanlands län","0486","Strängnäs","T0868","Strängnäs",14309,"614969","6582370"
"Södermanlands län","0488","Trosa","T0884","Trosa",6586,"647587","6531930"
"Östergötlands län","0509","Ödeshög","T1332","Ödeshög",2675,"479731","6454467"
"Östergötlands län","0512","Ydre","T1336","Österbymo",923,"516539","6409337"
"Östergötlands län","0513","Kinda","T1132","Kisa",3817,"537415","6427364"
"Östergötlands län","0560","Boxholm","T1040","Boxholm",3329,"502843","6450308"
"Östergötlands län","0561","Åtvidaberg","T1328","Åtvidaberg",6997,"558622","6451452"
"Östergötlands län","0562","Finspång","T1056","Finspång",13279,"546897","6507471"
"Östergötlands län","0563","Valdemarsvik","T1304","Valdemarsvik",2819,"593691","6452053"
"Östergötlands län","0580","Linköping","T1152","Linköping",113042,"536431","6474527"
"Östergötlands län","0581","Norrköping","T1192","Norrköping",96946,"568887","6494170"
"Östergötlands län","0582","Söderköping","T1284","Söderköping",7610,"577371","6482370"
"Östergötlands län","0583","Motala","T1188","Motala",31476,"502156","6489307"
"Östergötlands län","0584","Vadstena","T1300","Vadstena",5819,"494003","6478271"
"Östergötlands län","0586","Mjölby","T1180","Mjölby",13596,"507494","6464948"
"Jönköpings län","0604","Aneby","T1404","Aneby",3690,"488629","6410367"
"Jönköpings län","0617","Gnosjö","T1488","Gnosjö",4530,"424171","6357459"
"Jönköpings län","0642","Mullsjö","T5380","Mullsjö",5741,"433554","6420096"
"Jönköpings län","0643","Habo","T5284","Habo",8373,"445781","6418617"
"Jönköpings län","0662","Gislaved","T1484","Gislaved",10389,"413417","6351664"
"Jönköpings län","0665","Vaggeryd","T1720","Vaggeryd",5390,"448168","6372688"
"Jönköpings län","0680","Jönköping","T1544","Jönköping",97996,"456037","6404598"
"Jönköpings län","0682","Nässjö","T1608","Nässjö",18416,"482383","6390102"
"Jönköpings län","0683","Värnamo","T1732","Värnamo",19669,"441944","6338524"
"Jönköpings län","0684","Sävsjö","T1688","Sävsjö",5537,"479985","6361675"
"Jönköpings län","0685","Vetlanda","T1724","Vetlanda",13731,"504680","6364395"
"Jönköpings län","0686","Eksjö","T1460","Eksjö",10652,"498525","6391365"
"Jönköpings län","0687","Tranås","T1700","Tranås",14876,"498529","6432268"
"Kronobergs län","0760","Uppvidinge","T2036","Åseda",2681,"521227","6336158"
"Kronobergs län","0761","Lessebo","T1876","Hovmantorp",3156,"507672","6293610"
"Kronobergs län","0763","Tingsryd","T1992","Tingsryd",3168,"498440","6264822"
"Kronobergs län","0764","Alvesta","T1808","Alvesta",9076,"472786","6306480"
"Kronobergs län","0765","Älmhult","T2048","Älmhult",10651,"446847","6267812"
"Kronobergs län","0767","Markaryd","T1940","Markaryd",4971,"413809","6258177"
"Kronobergs län","0780","Växjö","T2024","Växjö",69127,"487991","6305021"
"Kronobergs län","0781","Ljungby","T1936","Ljungby",16181,"435164","6299213"
"Kalmar län","0821","Högsby","T2264","Högsby",1998,"561826","6336635"
"Kalmar län","0834","Torsås","T2428","Torsås",2058,"561912","6252264"
"Kalmar län","0840","Mörbylånga","T2208","Färjestaden",5869,"590806","6279101"
"Kalmar län","0860","Hultsfred","T2260","Hultsfred",5802,"550479","6372941"
"Kalmar län","0861","Mönsterås","T2340","Mönsterås",5270,"587907","6321659"
"Kalmar län","0862","Emmaboda","T2160","Emmaboda",5035,"532797","6276317"
"Kalmar län","0880","Kalmar","T2280","Kalmar",40434,"583421","6281274"
"Kalmar län","0881","Nybro","T2352","Nybro",13494,"555720","6289127"
"Kalmar län","0882","Oskarshamn","T2360","Oskarshamn",18541,"587281","6347448"
"Kalmar län","0883","Västervik","T2472","Västervik",21452,"596915","6402943"
"Kalmar län","0884","Vimmerby","T2460","Vimmerby",8298,"551155","6392142"
"Kalmar län","0885","Borgholm","T2132","Borgholm",4364,"603363","6304953"
"Gotlands län","0980","Gotland","T2552","Visby",24309,"697437","6392202"
"Blekinge län","1060","Olofström","T2720","Olofström",7834,"470776","6236959"
"Blekinge län","1080","Karlskrona","T2680","Karlskrona",37174,"539161","6227658"
"Blekinge län","1081","Ronneby","T2732","Ronneby",13082,"517317","6229131"
"Blekinge län","1082","Karlshamn","T2676","Karlshamn",20293,"490746","6227440"
"Blekinge län","1083","Sölvesborg","T2752","Sölvesborg",8894,"473355","6210964"
"Skåne län","1214","Svalöv","T3716","Svalöv",4021,"381533","6198130"
"Skåne län","1230","Staffanstorp","T3696","Staffanstorp",15999,"387287","6167474"
"Skåne län","1231","Burlöv","T3812","Åkarp",6148,"381160","6169186"
"Skåne län","1233","Vellinge","T3496","Vellinge",15522,"375071","6148879"
"Skåne län","1256","Östra Göinge","T2828","Broby",3443,"442755","6235031"
"Skåne län","1257","Örkelljunga","T3208","Örkelljunga",5344,"392609","6238535"
"Skåne län","1260","Bjuv","T3352","Bjuv",10660,"370425","6217448"
"Skåne län","1261","Kävlinge","T3552","Kävlinge",9789,"381575","6184875"
"Skåne län","1262","Lomma","T3576","Lomma",13616,"379247","6171529"
"Skåne län","1263","Svedala","T3724","Svedala",12470,"388410","6153341"
"Skåne län","1264","Skurup","T3684","Skurup",8394,"405441","6149442"
"Skåne län","1265","Sjöbo","T3664","Sjöbo",8319,"418001","6166091"
"Skåne län","1266","Hörby","T3500","Hörby",7642,"416281","6190285"
"Skåne län","1267","Höör","T3504","Höör",12631,"409193","6196980"
"Skåne län","1270","Tomelilla","T3112","Tomelilla",7142,"433575","6156187"
"Skåne län","1272","Bromölla","T2832","Bromölla",8140,"467262","6214621"
"Skåne län","1273","Osby","T3032","Osby",7783,"437956","6248827"
"Skåne län","1275","Perstorp","T3036","Perstorp",6068,"399977","6222541"
"Skåne län","1276","Klippan","T2964","Klippan",8819,"384860","6222609"
"Skåne län","1277","Åstorp","T3192","Åstorp",10589,"371584","6222547"
"Skåne län","1278","Båstad","T2840","Båstad",5513,"369169","6255958"
"Skåne län","1280","Malmö","T3604","Malmö",317245,"375326","6162571"
"Skåne län","1281","Lund","T3584","Lund",92069,"386858","6175081"
"Skåne län","1282","Landskrona","T3560","Landskrona",33296,"364676","6194801"
"Skåne län","1283","Helsingborg","T3452","Helsingborg",110520,"358033","6213142"
"Skåne län","1284","Höganäs","T3488","Höganäs",15455,"349661","6230537"
"Skåne län","1285","Eslöv","T3396","Eslöv",19569,"393534","6189420"
"Skåne län","1286","Ystad","T3808","Ystad",19705,"425633","6143760"
"Skåne län","1287","Trelleborg","T3752","Trelleborg",30453,"384718","6137758"
"Skåne län","1290","Kristianstad","T2980","Kristianstad",41022,"445499","6208721"
"Skåne län","1291","Simrishamn","T3060","Simrishamn",6911,"458859","6156272"
"Skåne län","1292","Ängelholm","T3196","Ängelholm",28232,"366473","6237792"
"Skåne län","1293","Hässleholm","T2936","Hässleholm",19576,"424149","6224507"
"Hallands län","1315","Hylte","T3992","Hyltebruk",4141,"393137","6318780"
"Hallands län","1380","Halmstad","T3960","Halmstad",69537,"371325","6281334"
"Hallands län","1381","Laholm","T4028","Laholm",6798,"379291","6263892"
"Hallands län","1382","Falkenberg","T3920","Falkenberg",27301,"348018","6308869"
"Hallands län","1383","Varberg","T4156","Varberg",35323,"334867","6331687"
"Hallands län","1384","Kungsbacka","T4008","Kungsbacka",23475,"324922","6376196"
"Västra Götalands län","1401","Härryda","T4520","Mölnlycke",18320,"328209","6393821"
"Västra Götalands län","1402","Partille","T4631","Partille",4554,"329697","6398989"
"Västra Götalands län","1407","Öckerö","T4428","Hönö och Öckerö",9134,"307594","6402181"
"Västra Götalands län","1415","Stenungsund","T4568","Stenungsund",13718,"313380","6440181"
"Västra Götalands län","1419","Tjörn","T4560","Skärhamn",3594,"296451","6432228"
"Västra Götalands län","1421","Orust","T4384","Henån",2294,"304450","6459401"
"Västra Götalands län","1427","Sotenäs","T4448","Kungshamn",3485,"280834","6475027"
"Västra Götalands län","1430","Munkedal","T4512","Munkedal",4138,"307319","6486462"
"Västra Götalands län","1435","Tanum","T4600","Tanumshede",1953,"286863","6515335"
"Västra Götalands län","1438","Dals-Ed","T4796","Ed",3066,"323737","6534112"
"Västra Götalands län","1439","Färgelanda","T4828","Färgelanda",1923,"325223","6496140"
"Västra Götalands län","1440","Ale","T4976","Nödinge-Nol",11492,"327404","6419798"
"Västra Götalands län","1441","Lerum","T4920","Lerum",27959,"339754","6407913"
"Västra Götalands län","1442","Vårgårda","T5124","Vårgårda",5711,"370583","6434604"
"Västra Götalands län","1443","Bollebygd","T4744","Bollebygd",4413,"355122","6394827"
"Västra Götalands län","1444","Grästorp","T5260","Grästorp",3087,"364171","6468081"
"Västra Götalands län","1445","Essunga","T5388","Nossebro",1956,"366114","6451779"
"Västra Götalands län","1446","Karlsborg","T5324","Karlsborg",3766,"472247","6487461"
"Västra Götalands län","1447","Gullspång","T5268","Gullspång",1550,"448306","6536686"
"Västra Götalands län","1452","Tranemo","T5080","Tranemo",3341,"401600","6372432"
"Västra Götalands län","1460","Bengtsfors","T4720","Bengtsfors",3249,"341168","6546282"
"Västra Götalands län","1461","Mellerud","T4952","Mellerud",3936,"352743","6509552"
"Västra Götalands län","1462","Lilla Edet","T4924","Lilla Edet",3914,"331101","6446725"
"Västra Götalands län","1463","Mark","T4912","Kinna",15405,"360744","6374727"
"Västra Götalands län","1465","Svenljunga","T5060","Svenljunga",3713,"386749","6374144"
"Västra Götalands län","1466","Herrljunga","T4864","Herrljunga",4095,"383441","6438790"
"Västra Götalands län","1470","Vara","T5500","Vara",4196,"380286","6459707"
"Västra Götalands län","1471","Götene","T5280","Götene",5078,"411328","6488589"
"Västra Götalands län","1472","Tibro","T5456","Tibro",8522,"450817","6475671"
"Västra Götalands län","1473","Töreboda","T5484","Töreboda",4670,"449381","6507645"
"Västra Götalands län","1480","Göteborg","T4368","Göteborg",592042,"319398","6395419"
"Västra Götalands län","1481","Mölndal","T4367","Mölndal",2765,"322229","6391219"
"Västra Götalands län","1482","Kungälv","T4452","Kungälv",19410,"319622","6418115"
"Västra Götalands län","1484","Lysekil","T4496","Lysekil",7882,"291966","6465501"
"Västra Götalands län","1485","Uddevalla","T4608","Uddevalla",36038,"319536","6472116"
"Västra Götalands län","1486","Strömstad","T4584","Strömstad",7374,"281216","6539565"
"Västra Götalands län","1487","Vänersborg","T5132","Vänersborg",23882,"343548","6472457"
"Västra Götalands län","1488","Trollhättan","T5084","Trollhättan",50032,"341648","6462581"
"Västra Götalands län","1489","Alingsås","T4700","Alingsås",27266,"353785","6423601"
"Västra Götalands län","1490","Borås","T4752","Borås",72984,"377625","6399313"
"Västra Götalands län","1491","Ulricehamn","T5104","Ulricehamn",11333,"405977","6406632"
"Västra Götalands län","1492","Åmål","T5140","Åmål",9511,"367878","6547980"
"Västra Götalands län","1493","Mariestad","T5372","Mariestad",16494,"431965","6507495"
"Västra Götalands län","1494","Lidköping","T5352","Lidköping",23429,"393600","6485722"
"Västra Götalands län","1495","Skara","T5420","Skara",11662,"408489","6472555"
"Västra Götalands län","1496","Skövde","T5428","Skövde",38725,"433066","6473795"
"Västra Götalands län","1497","Hjo","T5296","Hjo",6349,"457723","6462828"
"Västra Götalands län","1498","Tidaholm","T5460","Tidaholm",8228,"438802","6449170"
"Västra Götalands län","1499","Falköping","T5236","Falköping",17828,"415009","6448547"
"Värmlands län","1715","Kil","T5708","Kil",7714,"404640","6597480"
"Värmlands län","1730","Eda","T5628","Charlottenberg",2499,"348988","6641657"
"Värmlands län","1737","Torsby","T5844","Torsby",4512,"389304","6668337"
"Värmlands län","1760","Storfors","T5812","Storfors",2203,"458988","6599815"
"Värmlands län","1761","Hammarö","T5804","Skoghall",14368,"414593","6577580"
"Värmlands län","1762","Munkfors","T5760","Munkfors",2957,"418035","6633851"
"Värmlands län","1763","Forshaga","T5664","Forshaga",6439,"414136","6599818"
"Värmlands län","1764","Grums","T5676","Grums",5068,"392425","6580432"
"Värmlands län","1765","Årjäng","T5884","Årjäng",3436,"337176","6586625"
"Värmlands län","1766","Sunne","T5824","Sunne",5098,"395893","6635196"
"Värmlands län","1780","Karlstad","T5704","Karlstad",64214,"415469","6584193"
"Värmlands län","1781","Kristinehamn","T5720","Kristinehamn",18700,"449040","6574552"
"Värmlands län","1782","Filipstad","T5660","Filipstad",6477,"452688","6617974"
"Värmlands län","1783","Hagfors","T5688","Hagfors",4848,"427082","6655942"
"Värmlands län","1784","Arvika","T5604","Arvika",14095,"363585","6616102"
"Värmlands län","1785","Säffle","T5840","Säffle",9419,"382067","6556795"
"Örebro län","1814","Lekeberg","T6152","Fjugesta",2725,"492666","6559512"
"Örebro län","1860","Laxå","T6036","Laxå",3119,"478241","6538450"
"Örebro län","1861","Hallsberg","T5964","Hallsberg",8457,"506158","6547593"
"Örebro län","1862","Degerfors","T5916","Degerfors",7371,"468214","6565699"
"Örebro län","1863","Hällefors","T5996","Hällefors",4506,"473598","6627507"
"Örebro län","1864","Ljusnarsberg","T6016","Kopparberg",3028,"499408","6637295"
"Örebro län","1880","Örebro","T6188","Örebro",124027,"511196","6569808"
"Örebro län","1881","Kumla","T6020","Kumla",17089,"508342","6553907"
"Örebro län","1882","Askersund","T5904","Askersund",4172,"495134","6527473"
"Örebro län","1883","Karlskoga","T6008","Karlskoga",27562,"471067","6575247"
"Örebro län","1884","Nora","T6060","Nora",6773,"501458","6597643"
"Örebro län","1885","Lindesberg","T6040","Lindesberg",9732,"512024","6607148"
"Västmanlands län","1904","Skinnskatteberg","T6320","Skinnskatteberg",2349,"538919","6632358"
"Västmanlands län","1907","Surahammar","T6332","Surahammar",6382,"569164","6619284"
"Västmanlands län","1960","Kungsör","T6256","Kungsör",5942,"562665","6587534"
"Västmanlands län","1961","Hallstahammar","T6224","Hallstahammar",9835,"569723","6609303"
"Västmanlands län","1962","Norberg","T6292","Norberg",4543,"551806","6659179"
"Västmanlands län","1980","Västerås","T6376","Västerås",126190,"587090","6610021"
"Västmanlands län","1981","Sala","T6312","Sala",13531,"589039","6643690"
"Västmanlands län","1982","Fagersta","T6212","Fagersta",11978,"545050","6651731"
"Västmanlands län","1983","Köping","T6268","Köping",18871,"556188","6597492"
"Västmanlands län","1984","Arboga","T6200","Arboga",10981,"547011","6584807"
"Dalarnas län","2021","Vansbro","T6828","Vansbro",1701,"457416","6708697"
"Dalarnas län","2023","Malung-Sälen","T6636","Malung",4975,"430202","6724968"
"Dalarnas län","2026","Gagnef","T6484","Djurås",2162,"507341","6713589"
"Dalarnas län","2029","Leksand","T6608","Leksand",6339,"499941","6731698"
"Dalarnas län","2031","Rättvik","T6716","Rättvik",5195,"506271","6748576"
"Dalarnas län","2034","Orsa","T6696","Orsa",5849,"480994","6773624"
"Dalarnas län","2039","Älvdalen","T6896","Älvdalen",1941,"448665","6788225"
"Dalarnas län","2061","Smedjebacken","T6744","Smedjebacken",5340,"522712","6667437"
"Dalarnas län","2062","Mora","T6648","Mora",12801,"476401","6763934"
"Dalarnas län","2080","Falun","T6504","Falun",38476,"537172","6717767"
"Dalarnas län","2081","Borlänge","T6444","Borlänge",43107,"523460","6705839"
"Dalarnas län","2082","Säter","T6792","Säter",4707,"541884","6688145"
"Dalarnas län","2083","Hedemora","T6572","Hedemora",7605,"554223","6683029"
"Dalarnas län","2084","Avesta","T6404","Avesta och Krylbo",16498,"564957","6667742"
"Dalarnas län","2085","Ludvika","T6624","Ludvika",15748,"512102","6666457"
"Gävleborgs län","2101","Ockelbo","T7236","Ockelbo",2959,"592303","6750429"
"Gävleborgs län","2104","Hofors","T7112","Hofors",6230,"570990","6712850"
"Gävleborgs län","2121","Ovanåker","T7044","Edsbyn",4293,"543452","6805278"
"Gävleborgs län","2132","Nordanstig","T7020","Bergsjö",1290,"608054","6873962"
"Gävleborgs län","2161","Ljusdal","T7184","Ljusdal",7309,"557513","6855801"
"Gävleborgs län","2180","Gävle","T7076","Gävle",76886,"618859","6727457"
"Gävleborgs län","2181","Sandviken","T7272","Sandviken",25312,"596734","6720902"
"Gävleborgs län","2182","Söderhamn","T7316","Söderhamn",12329,"609924","6798863"
"Gävleborgs län","2183","Bollnäs","T7036","Bollnäs",13962,"574404","6802649"
"Gävleborgs län","2184","Hudiksvall","T7120","Hudiksvall",16383,"611604","6845827"
"Västernorrlands län","2260","Ånge","T7736","Ånge",2852,"533265","6932057"
"Västernorrlands län","2262","Timrå","T7704","Timrå",10549,"620948","6931625"
"Västernorrlands län","2280","Härnösand","T7500","Härnösand",18563,"650147","6948299"
"Västernorrlands län","2281","Sundsvall","T7688","Sundsvall",58477,"618161","6919279"
"Västernorrlands län","2282","Kramfors","T7524","Kramfors",6843,"640981","6980813"
"Västernorrlands län","2283","Sollefteå","T7660","Sollefteå",8905,"614176","7005552"
"Västernorrlands län","2284","Örnsköldsvik","T7744","Örnsköldsvik",33348,"680564","7022540"
"Jämtlands län","2303","Ragunda","T7856","Hammarstrand",1173,"567734","6998311"
"Jämtlands län","2305","Bräcke","T7816","Bräcke",1533,"521490","6957896"
"Jämtlands län","2309","Krokom","T7888","Krokom",1921,"472423","7022554"
"Jämtlands län","2313","Strömsund","T7960","Strömsund",3707,"527884","7080838"
"Jämtlands län","2321","Åre","T8024","Åre",3200,"396832","7031118"
"Jämtlands län","2326","Berg","T7976","Svenstavik",1034,"470958","6959651"
"Jämtlands län","2361","Härjedalen","T7968","Sveg",2537,"466419","6878400"
"Jämtlands län","2380","Östersund","T8044","Östersund",52250,"483780","7003377"
"Västerbottens län","2401","Nordmaling","T8256","Nordmaling",2636,"723413","7056885"
"Västerbottens län","2403","Bjurholm","T8120","Bjurholm",1030,"706733","7096098"
"Västerbottens län","2404","Vindeln","T8380","Vindeln",2450,"729008","7127856"
"Västerbottens län","2409","Robertsfors","T8292","Robertsfors",2038,"783843","7131469"
"Västerbottens län","2417","Norsjö","T8268","Norsjö",2054,"711875","7206251"
"Västerbottens län","2418","Malå","T8244","Malå",2043,"675150","7234511"
"Västerbottens län","2421","Storuman","T8324","Storuman",2188,"599033","7220234"
"Västerbottens län","2422","Sorsele","T8316","Sorsele",1168,"616937","7269617"
"Västerbottens län","2425","Dorotea","T8168","Dorotea",1366,"568389","7126915"
"Västerbottens län","2460","Vännäs","T8384","Vännäs",4466,"732704","7095184"
"Västerbottens län","2462","Vilhelmina","T8376","Vilhelmina",3512,"579298","7167788"
"Västerbottens län","2463","Åsele","T8400","Åsele",1664,"614608","7116947"
"Västerbottens län","2480","Umeå","T8372","Umeå",88203,"761071","7087129"
"Västerbottens län","2481","Lycksele","T8232","Lycksele",8572,"676319","7166636"
"Västerbottens län","2482","Skellefteå","T8312","Skellefteå",35882,"781806","7193107"
"Norrbottens län","2505","Arvidsjaur","T8516","Arvidsjaur",4607,"693466","7280827"
"Norrbottens län","2506","Arjeplog","T8512","Arjeplog",1782,"630364","7328190"
"Norrbottens län","2510","Jokkmokk","T8628","Jokkmokk",2798,"713742","7395652"
"Norrbottens län","2513","Överkalix","T8940","Överkalix",1007,"850934","7378016"
"Norrbottens län","2514","Kalix","T8656","Kalix",8493,"870990","7327986"
"Norrbottens län","2518","Övertorneå","T8944","Övertorneå",1858,"885199","7390146"
"Norrbottens län","2521","Pajala","T8780","Pajala",2064,"860882","7479156"
"Norrbottens län","2523","Gällivare","T8596","Gällivare",10402,"744955","7458057"
"Norrbottens län","2560","Älvsbyn","T8932","Älvsbyn",5020,"775402","7296996"
"Norrbottens län","2580","Luleå","T8724","Luleå",48728,"831036","7292189"
"Norrbottens län","2581","Piteå","T8792","Piteå",23326,"800159","7259463"
"Norrbottens län","2582","Boden","T8544","Boden",16847,"806008","7316055"
"Norrbottens län","2583","Haparanda","T8604","Haparanda",6712,"916054","7331539"
"Norrbottens län","2584","Kiruna","T8676","Kiruna",16835,"720883","7535464"
"Stockholms län","0123","Järfälla","0000","Jakobsberg",29971,"660715","6590644"
"Stockholms län","0128","Salem","0000","Salem",0,"657999","6565600"
"Stockholms län","0184","Solna","0000","Solna",82011,"670614","6583923"
"Stockholms län","0183","Sundbyberg","0000","Sundbyberg",51925,"668543","6584265"
"Stockholms län","0138","Tyresö","TX008","Bollmora",0,"683764","6571373"
